{
    "identityStatus": "provisional",
    "type": "person",
    "label": 
        "AGENT_NAME",
    "identifiedBy": [
        {
            "type": "isbn",
            "value": "978-3-16-148410-0",
            "source": "isbn source",
            "qualifier": "isbn qualifier",
            "note": "isbn note"
        },
        {
            "type": "local",
            "value": "1a5bcc"
        }
    ],
    "recordId": [
        "654321",
        "543210"
    ],
    "source": [
        "lcnaf"
    ],
    "description": [
        "description summary"
    ]
}